^D:\FILES\PROJECTS\MASTERPROJECT\QTCROWDSIM\CROWDSIMULATION\MAINWINDOW.UI
C:\QT\5.10.0\MSVC2017_64\BIN\UIC.EXE
^D:\FILES\PROJECTS\MASTERPROJECT\QTCROWDSIM\CROWDSIMULATION\SRC\VIS\OPENGLMASTER.UI
C:\QT\5.10.0\MSVC2017_64\BIN\UIC.EXE
^D:\FILES\PROJECTS\MASTERPROJECT\QTCROWDSIM\CROWDSIMULATION\SRC\SIM\CONTINUUMFIELD.H
C:\QT\5.10.0\MSVC2017_64\BIN\MOC.EXE
^D:\FILES\PROJECTS\MASTERPROJECT\QTCROWDSIM\CROWDSIMULATION\SRC\SIM\ENGINES\CONTINUUMENGINE.H
C:\QT\5.10.0\MSVC2017_64\BIN\MOC.EXE
^D:\FILES\PROJECTS\MASTERPROJECT\QTCROWDSIM\CROWDSIMULATION\SRC\SIM\IENVIRONMENT.H
C:\QT\5.10.0\MSVC2017_64\BIN\MOC.EXE
^D:\FILES\PROJECTS\MASTERPROJECT\QTCROWDSIM\CROWDSIMULATION\SRC\UI\STATSVIEW.H
C:\QT\5.10.0\MSVC2017_64\BIN\MOC.EXE
^D:\FILES\PROJECTS\MASTERPROJECT\QTCROWDSIM\CROWDSIMULATION\SRC\MAINWINDOW.H
C:\QT\5.10.0\MSVC2017_64\BIN\MOC.EXE
^D:\FILES\PROJECTS\MASTERPROJECT\QTCROWDSIM\CROWDSIMULATION\SRC\VIS\OPENGLMASTER.H
C:\QT\5.10.0\MSVC2017_64\BIN\MOC.EXE
^D:\FILES\PROJECTS\MASTERPROJECT\QTCROWDSIM\CROWDSIMULATION\SRC\SIM\SIMULATIONSETTINGS.H
C:\QT\5.10.0\MSVC2017_64\BIN\MOC.EXE
^D:\FILES\PROJECTS\MASTERPROJECT\QTCROWDSIM\CROWDSIMULATION\SRC\SIM\SIMULATIONCORE.H
C:\QT\5.10.0\MSVC2017_64\BIN\MOC.EXE
^D:\FILES\PROJECTS\MASTERPROJECT\QTCROWDSIM\CROWDSIMULATION\RESOURCES.QRC
^D:\FILES\PROJECTS\MASTERPROJECT\QTCROWDSIM\CROWDSIMULATION\SRC\SIM\COLLISIONRESOLVER.H
C:\QT\5.10.0\MSVC2017_64\BIN\MOC.EXE
^D:\FILES\PROJECTS\MASTERPROJECT\QTCROWDSIM\CROWDSIMULATION\SRC\UI\EVENTVIEW.H
C:\QT\5.10.0\MSVC2017_64\BIN\MOC.EXE
^D:\FILES\PROJECTS\MASTERPROJECT\QTCROWDSIM\CROWDSIMULATION\DEBUG\MOC_PREDEFS.H.CBT
C:\QT\5.10.0\MSVC2017_64\MKSPECS\FEATURES\DATA\DUMMY.CPP
